------------------------------------------------------------------------
r7 | computerpunk | 2009-12-14 20:10:35 +0000 (Mon, 14 Dec 2009) | 1 line
Changed paths:
   A /tags/0.1.2 (from /trunk:6)

- Tagging.
------------------------------------------------------------------------
r6 | computerpunk | 2009-12-14 19:59:42 +0000 (Mon, 14 Dec 2009) | 1 line
Changed paths:
   M /trunk/WarBoard_TogglerTidyChat.lua
   M /trunk/WarBoard_TogglerTidyChat.mod

- Update to 1.3.3.
------------------------------------------------------------------------
